[
 {
    "title":"市委书记杨省世率队观摩园区项目",
    "type":"公司新闻",
    "createDate":"2017-05-12",
    "showNumber":2000,
    "content":"5月12日上午，市委书记杨省世带领全市农业项目现场会与会人员到开发区观摩。灌云县委书记左军、县委副书记伏开清、副县长张凌云及开发区管委会主任徐占兵等县、区领导参加观摩.杨省世一行来到园区品品鲜项目现场。县委书记左军首先介绍了全县农业发展的总体情况及发展的新成就、新变化。品品鲜项目总经理卓智勇就公司情况进行了介绍。江苏品品鲜生物科技有限公司总投资5.6亿元，一期于2016年11月份开工，仅用了5个月就实现投产，该项目全部建成后可实现年产海鲜菇2.5万吨，销售额2亿元以上，带动县内500名劳动力就近就地转移就业。杨书记一行随后参观了生产车间及全县农业产品展示区，并与卓经理亲切交谈，就菌菇产品的年产量、产值、销售地等情况进行了详细询问。",
    "href":"https://mp.weixin.qq.com/s?__biz=MzI0MzIwNjA2Mg==&mid=2649613344&idx=1&sn=5432573272ed0333c2efd7511750ddf8&chksm=f169d6e1c61e5ff798ee1d2eab0cad4686357563f3447d57fd2f1cc0e08bd2e3803b40406150&mpshare=1&scene=1&srcid=0512DwxNiyHJ9p1FrYV3S41m&key=316336ac2ae675e0ec06b9d43033c2a38b398711636f4afa8ee50bc641af09c1d07c01269442e43e3e73d9fd5509554f1521a7ea67b53e73d008901493e1cf21eaf31d19a23611bd5fdfedc9e5a99e72&ascene=0&uin=MTQxMTY0MzQyMA%3D%3D&devicetype=iMac+MacBookPro11%2C1+OSX+OSX+10.12.3+build(16D32)&version=12020510&nettype=WIFI&fontScale=100&pass_ticket=a6SxUXnHIdcv2r%2F%2FW19%2BGYYkf4kNnG4k3FH6Szb%2F1O9pSQGJpdl3LHGs0BuomEDD"
  },
 {
    "title":"国内最先进海鲜菇工厂在江苏灌云开建",
    "type":"公司新闻",
    "createDate":"2016-12-03",
    "showNumber":2000,
    "content":"日前，公司与盐城爱菲尔菌菇装备科技有限公司在江苏灌云签订了日产11万袋海鲜菇1期工程，该项目目前已开始施工，计划明年5月正式投产运营。品品鲜生物科技有限公司位于江苏省灌云县经济开发区，占地总面积200余亩。该公司是国内著名食用菌高科技生产企业，采用国际先进的生产设备及生物栽培技术，以工业化、规模化、自动化生产方式为消费者提供高品质的珍稀食用菌。该公司旨在通过绿色生态、可持续的生产方式为社会提供更多绿色、安全、新鲜的菇类产品。海鲜菇工厂即是该公司新近投资兴建的又一个菌菇生产工厂。",
    "href":""
  },
  {
    "title":"品品鲜食用菌深加工项目交付项目规划用地",
    "type":"公司新闻",
    "createDate":"2016-11-15",
    "showNumber":2000,
    "content":"11月15日上午，投资5.5亿元的江苏品品鲜生物科技有限公司食用菌深加工项目启动围墙放线，项目规划用地正式交付建设方启动建设。该项目占地约200亩，拟建设年产杏鲍菇、海鲜茹4.5万吨的食用菌工厂化生产工厂，预计明年9月份该项目即可竣工投入生产。",
    "href":""
  },
  {
    "title":"品品鲜进驻重庆万盛区",
    "type":"公司新闻",
    "createDate":"2016-11-03",
    "showNumber":2000,
    "content":"品品鲜进驻重庆万盛区，征工业地180亩，投资2.5亿元。设计产能，日产杏鲍菇50吨、白玉、蟹味、海鲜菇30吨。2017年中旬陆续投产。",
    "href":""
  },
  {
    "title":"品品鲜食用菌工厂化项目落户江苏灌云",
    "type":"公司新闻",
    "createDate":"2016-05-28",
    "showNumber":2000,
    "content":"26日下午，县政府与江苏品品鲜生物科技有限公司举行食用菌工厂化项目签约仪式。县长朱兴波出席并致辞，县委常委、灌云经济开发区党工委书记李占超主持签约仪式，江苏品品鲜生物科技有限公司总经理卓智勇作项目介绍。江苏品品鲜生物科技有限公司董事长陈长茂、副县长马兆素及县有关部门负责人出席签约仪式。李占超与卓智勇分别代表双方签约。江苏品品鲜生物科技有限公司食用菌工厂化项目总投资约5.6亿元，建设年产杏鲍菇、海鲜菇4.5万吨的食用菌工厂化生产工厂一个，项目分二期建设，其中一期年产杏鲍菇1.5万吨、二期年产杏鲍菇和海鲜菇3万吨，并建设蘑菇深加工项目。仪式上，朱兴波代表县委、县政府对项目的成功签约表示祝贺。他表示，县委、县政府和相关职能部门将全力营造“亲商、安商、富商”的投资环境，切实履行好各自承担的职责，为项目提供优质、高效的服务，推动项目快审批、快开工、快建设、快达效，全力以赴把这一项目做大、做强、做出品牌。卓智勇对县委、县政府给予的大力支持表示感谢，表示将切实把协议内容尽快落到实处，充分利用灌云良好的农业发展条件和优越的交通区位优势，充分发挥公司在人才、技术、资金、信息、市场、产品等方面的优势，全力加快项目建设，推动双方合作结出硕果，为灌云经济社会发展作出更大贡献。",
    "href":""
  }
]
